<svg width="11" height="6" viewBox="0 0 11 6" fill="none" xmlns="http://www.w3.org/2000/svg">
<path d="M0.652589 1.53545C0.661564 1.41788 0.697464 1.32744 0.805161 1.27318C0.912859 1.21892 1.01158 1.16465 1.12825 1.26414C1.29878 1.40884 1.47827 1.54449 1.65777 1.68919C1.87316 1.86103 2.07958 2.0419 2.29498 2.21374C2.59115 2.46696 2.88731 2.72019 3.18348 2.97342C3.44375 3.19047 3.70402 3.40752 3.96429 3.63361C4.19763 3.83258 4.422 4.03154 4.65535 4.23051C4.80792 4.35712 4.96049 4.49278 5.11306 4.61035C5.13999 4.62843 5.20281 4.61939 5.22974 4.6013C5.49 4.37521 5.75027 4.14911 6.01054 3.92302C6.35159 3.63361 6.69263 3.35326 7.03367 3.06385C7.33881 2.81063 7.63498 2.54836 7.93115 2.29513C8.26322 2.01477 8.58631 1.73441 8.91838 1.45406C9.00813 1.37266 9.10685 1.30031 9.21455 1.237C9.34917 1.14657 9.56457 1.22796 9.61841 1.3817C9.71714 1.65302 9.59149 1.73441 9.37609 1.92433C9.053 2.20469 8.72991 2.49409 8.39784 2.77445C8.22732 2.91915 8.04782 3.05481 7.8773 3.19951C7.66191 3.38039 7.44651 3.57935 7.22214 3.76023C7.00675 3.9411 6.79135 4.11294 6.57596 4.29381C6.27979 4.54704 5.99259 4.80027 5.7054 5.05349C5.58873 5.15298 5.47205 5.25246 5.34641 5.3429C5.22076 5.43333 4.98742 5.37907 4.83484 5.24341C4.6374 5.07158 4.43995 4.89975 4.24251 4.72792C3.82967 4.37521 3.41683 4.01346 3.00399 3.66075C2.72577 3.42561 2.44755 3.20856 2.16933 2.97342C2.02573 2.8468 1.89111 2.71115 1.73854 2.58453C1.56802 2.43983 1.38852 2.30417 1.218 2.15947C1.04748 2.01477 0.876959 1.87007 0.715413 1.71633C0.670539 1.68919 0.670539 1.6078 0.652589 1.53545Z" stroke="white" stroke-width="1.09758"/>
</svg>
