<svg width="29" height="25" viewBox="0 0 29 25" fill="none" xmlns="http://www.w3.org/2000/svg">
<g opacity="0.6">
<path d="M17.4384 22.5981V20.3956L17.4934 20.3406C17.6036 20.1203 20.0263 15.33 20.0263 13.1275C20.0263 9.98901 17.4384 7.40112 14.2999 7.40112C11.1614 7.40112 8.57349 9.98901 8.57349 13.1275C8.57349 14.9996 10.6108 19.0191 11.1614 20.0653V20.1203V22.5981C11.1614 22.8183 11.3816 23.0386 11.6019 23.0386H16.9979C17.2732 23.0386 17.4384 22.8183 17.4384 22.5981ZM13.474 14.8344H15.1258V19.6248V19.6798H13.4189V19.6248V14.8344H13.474ZM14.3549 8.28211C17.053 8.28211 19.2004 10.4295 19.2004 13.1275C19.2004 14.8895 17.3833 18.6887 16.8878 19.6798H16.0618V19.6248V14.8344H16.5023C16.7226 14.8344 16.9428 14.6142 16.9428 14.3939C16.9428 14.1737 16.7226 13.9534 16.5023 13.9534H16.0618V13.7332C16.0618 13.5129 15.8416 13.2927 15.6214 13.2927C15.4011 13.2927 15.1809 13.5129 15.1809 13.7332V13.9534H13.529V13.7332C13.529 13.5129 13.3088 13.2927 13.0885 13.2927C12.8683 13.2927 12.648 13.5129 12.648 13.7332V13.9534H12.0424C11.8221 13.9534 11.6019 14.1737 11.6019 14.3939C11.6019 14.6142 11.8221 14.8344 12.0424 14.8344H12.648V19.6248V19.6798H12.0424C11.2164 18.1381 9.50953 14.6142 9.50953 13.1275C9.50953 10.4295 11.6569 8.28211 14.3549 8.28211Z" fill="white"/>
<path d="M13.0335 23.5892C12.8133 23.5892 12.593 23.8095 12.593 24.0297C12.593 24.25 12.8133 24.4702 13.0335 24.4702H15.6214C15.8416 24.4702 16.0619 24.25 16.0619 24.0297C16.0619 23.8095 15.8416 23.5892 15.6214 23.5892H13.0335Z" fill="white"/>
<path d="M14.7953 4.1526V1.06915C14.7953 0.848908 14.575 0.628662 14.3548 0.628662C14.1346 0.628662 13.9143 0.848908 13.9143 1.06915V4.1526C13.9143 4.37284 14.1346 4.59309 14.3548 4.59309C14.575 4.59309 14.7953 4.4279 14.7953 4.1526Z" fill="white"/>
<path d="M21.8433 7.7316C21.9534 7.7316 22.0635 7.67654 22.1737 7.62148L24.3761 5.41902C24.5413 5.25383 24.5413 4.97853 24.3761 4.81334C24.2109 4.64816 23.9356 4.64816 23.7704 4.81334L21.568 7.0158C21.4028 7.18099 21.4028 7.45629 21.568 7.62148C21.623 7.67654 21.7332 7.7316 21.8433 7.7316Z" fill="white"/>
<path d="M20.2463 1.95006C20.0261 1.83994 19.7508 1.95006 19.6407 2.17031L18.3743 4.97844C18.2641 5.19869 18.3743 5.474 18.5945 5.58412C18.6496 5.58412 18.7046 5.58412 18.7597 5.58412C18.9249 5.58412 19.0901 5.474 19.1451 5.30881L20.4666 2.50068C20.5767 2.28043 20.4666 2.06019 20.2463 1.95006Z" fill="white"/>
<path d="M9.17922 1.61974C8.95897 1.72986 8.84885 1.95011 8.95897 2.17035L10.0602 5.03355C10.1153 5.19874 10.2804 5.30886 10.4456 5.30886C10.5007 5.30886 10.5558 5.30886 10.6108 5.2538C10.8311 5.14367 10.9412 4.92343 10.8861 4.70318L9.72983 1.83999C9.61971 1.61974 9.39946 1.50962 9.17922 1.61974Z" fill="white"/>
<path d="M0.974969 10.0441C0.919908 10.2643 1.03003 10.5397 1.25028 10.5947L4.16853 11.6409C4.2236 11.6409 4.27866 11.6409 4.33372 11.6409C4.4989 11.6409 4.66409 11.5308 4.77421 11.3656C4.82927 11.1453 4.71915 10.87 4.4989 10.815L1.58065 9.76879C1.3604 9.71373 1.08509 9.82385 0.974969 10.0441Z" fill="white"/>
<path d="M27.4045 18.9091L24.4863 17.8629C24.266 17.8078 23.9907 17.918 23.9357 18.1382C23.8806 18.3585 23.9907 18.6338 24.211 18.6888L27.1292 19.735C27.1843 19.735 27.2394 19.735 27.2944 19.735C27.4596 19.735 27.6248 19.6249 27.7349 19.4597C27.7349 19.2394 27.6248 18.9641 27.4045 18.9091Z" fill="white"/>
<path d="M5.15968 19.1293C5.04956 18.909 4.77425 18.7989 4.55401 18.909L1.74587 20.2305C1.52562 20.3406 1.4155 20.616 1.52562 20.8362C1.58069 21.0014 1.74587 21.1115 1.91105 21.1115C1.96612 21.1115 2.02118 21.1115 2.07624 21.0564L4.88437 19.735C5.15968 19.6248 5.2698 19.3495 5.15968 19.1293Z" fill="white"/>
<path d="M24.1008 10.5948L26.9089 9.2733C27.1292 9.16318 27.2393 8.88787 27.1292 8.66762C27.019 8.44738 26.7437 8.33725 26.5235 8.44738L23.7154 9.76885C23.4951 9.87898 23.385 10.1543 23.4951 10.3745C23.5502 10.5397 23.7154 10.6498 23.8805 10.6498C23.9356 10.6498 24.0457 10.5948 24.1008 10.5948Z" fill="white"/>
<path d="M6.42616 7.67655C6.53628 7.78667 6.64641 7.78667 6.75653 7.78667C6.86665 7.78667 6.97678 7.73161 7.0869 7.67655C7.0869 7.67655 7.0869 7.62148 7.14196 7.62148C7.14196 7.62148 7.19702 7.62148 7.19702 7.56642C7.36221 7.40124 7.36221 7.12593 7.19702 6.96075L4.99456 4.75829C4.82938 4.5931 4.55407 4.5931 4.38889 4.75829L4.33383 4.81335L4.27876 4.86841C4.05852 5.08866 4.05852 5.36396 4.2237 5.52915L6.42616 7.67655Z" fill="white"/>
<path d="M4.16853 15.1098C4.16853 14.8896 3.94828 14.6693 3.72804 14.6693L0.644593 14.7794C0.424348 14.7794 0.204102 14.9997 0.204102 15.2199C0.204102 15.4402 0.424348 15.6604 0.644593 15.6604L3.72804 15.5503C4.00334 15.5503 4.16853 15.33 4.16853 15.1098Z" fill="white"/>
<path d="M28.0103 13.8434L24.9268 13.9535C24.7066 13.9535 24.4863 14.1738 24.4863 14.394C24.4863 14.6142 24.7066 14.8345 24.9268 14.8345L28.0103 14.7244C28.2305 14.7244 28.4508 14.5041 28.4508 14.2839C28.4508 14.0086 28.2305 13.8434 28.0103 13.8434Z" fill="white"/>
</g>
</svg>
