<svg width="38" height="33" viewBox="0 0 38 33" fill="none" xmlns="http://www.w3.org/2000/svg">
<path d="M37.8591 32.3932L18.7964 21.7288L18.1299 0L37.8591 32.3932Z" fill="#57BB6F"/>
<path d="M18.7965 21.7296L0.000488281 32.394H37.8592L18.7965 21.7296Z" fill="#00B09A"/>
<path d="M18.1295 0L18.796 21.7288L0 32.3932L18.1295 0Z" fill="#2CB684"/>
</svg>
