<svg width="16" height="13" viewBox="0 0 16 13" fill="none" xmlns="http://www.w3.org/2000/svg">
<path d="M12.9999 1C13.7999 1 14.6666 0.666667 14.9999 0.5C14.6 1.3 13.8332 1.83333 13.4999 2C13.8332 2 14.6999 1.9 15.4999 1.5C14.9999 2.5 14.4999 3 13.9999 3.5C13.4999 7 12.4999 9.5 8.49988 11.5C5.29988 13.1 1.83321 11.5 0.499878 10.5C1.49988 10.5 3.79988 10.3 4.99988 9.5C3.39988 9.1 2.66654 8 2.49988 7.5H3.49988C1.89988 7.5 1.16654 5.5 0.999878 4.5L2.49992 5C1.66659 4.5 0.999878 1.5 1.99992 0.5C3.49988 3 6.49992 4 7.99992 4V3.99986C7.99992 2.99991 7.99992 1.99995 8.99988 1C9.99988 0 11.4999 0 12.9999 1Z" fill="white"/>
</svg>
