<svg width="15" height="10" viewBox="0 0 15 10" fill="none" xmlns="http://www.w3.org/2000/svg">
<path fill-rule="evenodd" clip-rule="evenodd" d="M14.4728 1.61111C14.3019 0.851852 13.6561 0.277778 12.8774 0.203704C11.054 0 9.19266 0 7.3693 0C5.52694 0 3.68459 0 1.86123 0.203704C1.0825 0.277778 0.436725 0.851852 0.265785 1.61111C-0.00012207 2.7037 -0.00012207 3.88889 -0.00012207 5C-0.00012207 6.11111 -0.00012207 7.31481 0.265785 8.38889C0.436725 9.14815 1.0825 9.72222 1.86123 9.7963C3.68459 10 5.52694 10 7.3693 10C9.21165 10 11.054 10 12.8774 9.7963C13.6561 9.7037 14.2829 9.14815 14.4728 8.38889C14.7387 7.2963 14.7387 6.11111 14.7387 5C14.7197 3.88889 14.7197 2.7037 14.4728 1.61111ZM5.45097 7.22222V2.48148C7.00843 3.27778 8.56588 4.05556 10.1233 4.87037C8.56588 5.64815 7.02742 6.44444 5.45097 7.22222Z" fill="white"/>
</svg>
